NATIONAL TRANSPORT AND SAFETY AUTHORITY,,,,,,,,,,,,,,,,,,,
COMPARATIVE STATISTICS TRENDS FOR 2019 AND 2020 AS AT 17TH FEBRUARY 2020,,,,,,,,,,,,,,,,,,,
,,,,,,,,,,,,,,,,,,,
,CLASSES OF VICTIMS,,,,,,,,,,,,,,,,,,
,PEDESTRIANS,,,DRIVERS,,,PASSENGERS,,,PILLION PASS,,,PEDAL CYC,,,M/CYCLISTS,,,TOTAL
,Dead,Seriously Injured,Slightly Injured,Dead,Seriously Injured,Slightly Injured,Dead,Seriously Injured,Slightly Injured,Dead,Seriously Injured,Slightly Injured,Dead,Seriously Injured,Slightly Injured,Dead,Seriously Injured,Slightly Injured,
1 JAN - 17 FEB 2019,153,146,29,49,85,52,100,273,339,23,67,48,10,4,1,82,122,35,"1,618"
1 JAN - 17 FEB 2020,184,196,45,34,91,51,76,287,526,50,114,46,9,3,0,105,181,42,"2,040"
Variance,31,50,16,-15,6,-1,-24,14,187,27,47,-2,-1,-1,-1,23,59,7,422
%Variance,20.2614379084967,34.2465753424658,55.1724137931034,-30.6122448979592,7.05882352941176,-1.92307692307692,-24,5.12820512820513,55.1622418879056,117.391304347826,70.1492537313433,-4.16666666666667,-10,-25,-100,28.0487804878049,48.3606557377049,20,26.0815822002472
,,,,,,,,,,,,,,,,,,,
,SUMMARY OF VICTIMS,,,,,,,,,,SUMMARY OF FATALITIES,,,,,, ,,
,,FEB F.M,17-Feb,Annual,,,,,,,,,2020,,2019,% VAR,,,
CLASS OF VICTIMS,,2019,2020,2019,2020,VAR,% VARIANCE,,,PEDESTRIANS,,,184,,153,20.2614379084967,,,
FATALITIES,,269,162,417,458,41,9.8,,,DRIVERS,,,34,,49,-30.6122448979592,,,
SERIOUSLY INJURED,,498,311,697,872,175,25.1,,,PASSENGERS,,,76,,100,-24,,,
SLIGHTLY INJURED,,427,324,504,710,206,40.9,,,PILLION PASSENGERS,,,50,,23,117.391304347826,,,
TOTAL,,1194,797,"1,618","2,040",422,26.1,,,PEDAL CYCLISTS,,,9,,10,-10,,,
,,,,,,,,,,MOTOR CYCLISTS,,,105,,82,28.0487804878049,,,
,,,,,,,,,,TOTAL,,,458,,417,9.8,,,
Variance from target: ,,,,2019/2020:,,,-12%-9.8%=-21.8%,,,,,,,,,,,,
,,,,FY(18/19)/(19/20):,,,-10%-13.3%=-23.3%,,,,,,,,,,,,
,,,,,,,,,,,,,,,,,,,
,,,,,,,,,,,,,,,,,,,
,,,,,,,,,,,,,,,,,,,
,,,,,,,,,,,,,,,,,,,
,,,,,,,,,,,,,,,,,,,
,,,,,,,,,,,,,,,,,,,
,,,, ,,,,,,,,,,,,,,,
